[
  {
    "constant": true,
    "inputs": [],
    "name": "name",
    "outputs": [
      {
        "name": "",
        "type": "string"
      }
    ],
    "payable": false,
    "type": "function"
  },
  {
    "constant": false,
    "inputs": [
      {
        "name": "_spender",
        "type": "address"
      },
      {
        "name": "_value",
        "type": "uint256"
      }
    ],
    "name": "approve",
    "outputs": [
      {
        "name": "success",
        "type": "bool"
      }
    ],
    "payable": false,
    "type": "function"
  },
  {
    "constant": true,
    "inputs": [],
    "name": "rewardValue",
    "outputs": [
      {
        "name": "",
        "type": "uint256"
      }
    ],
    "payable": false,
    "type": "function"
  },
  {
    "constant": true,
    "inputs": [],
    "name": "totalSupply",
    "outputs": [
      {
        "name": "",
        "type": "uint256"
      }
    ],
    "payable": false,
    "type": "function"
  },
  {
    "constant": false,
    "inputs": [
      {
        "name": "_from",
        "type": "address"
      },
      {
        "name": "_to",
        "type": "address"
      },
      {
        "name": "_value",
        "type": "uint256"
      }
    ],
    "name": "transferFrom",
    "outputs": [
      {
        "name": "success",
        "type": "bool"
      }
    ],
    "payable": false,
    "type": "function"
  },
  {
    "constant": true,
    "inputs": [],
    "name": "decimals",
    "outputs": [
      {
        "name": "",
        "type": "uint8"
      }
    ],
    "payable": false,
    "type": "function"
  },
  {
    "constant": true,
    "inputs": [],
    "name": "rewardScarcityFactor",
    "outputs": [
      {
        "name": "",
        "type": "uint256"
      }
    ],
    "payable": false,
    "type": "function"
  },
  {
    "constant": true,
    "inputs": [],
    "name": "version",
    "outputs": [
      {
        "name": "",
        "type": "string"
      }
    ],
    "payable": false,
    "type": "function"
  },
  {
    "constant": true,
    "inputs": [
      {
        "name": "",
        "type": "uint256"
      }
    ],
    "name": "totalBlockContribution",
    "outputs": [
      {
        "name": "",
        "type": "uint256"
      }
    ],
    "payable": false,
    "type": "function"
  },
  {
    "constant": false,
    "inputs": [],
    "name": "updateAccount",
    "outputs": [],
    "payable": false,
    "type": "function"
  },
  {
    "constant": true,
    "inputs": [
      {
        "name": "_owner",
        "type": "address"
      }
    ],
    "name": "balanceOf",
    "outputs": [
      {
        "name": "balance",
        "type": "uint256"
      }
    ],
    "payable": false,
    "type": "function"
  },
  {
    "constant": false,
    "inputs": [],
    "name": "withdrawEther",
    "outputs": [],
    "payable": false,
    "type": "function"
  },
  {
    "constant": true,
    "inputs": [
      {
        "name": "",
        "type": "uint256"
      }
    ],
    "name": "minedBlock",
    "outputs": [
      {
        "name": "",
        "type": "bool"
      }
    ],
    "payable": false,
    "type": "function"
  },
  {
    "constant": true,
    "inputs": [
      {
        "name": "",
        "type": "address"
      }
    ],
    "name": "pendingPayouts",
    "outputs": [
      {
        "name": "addr",
        "type": "address"
      },
      {
        "name": "blockPayout",
        "type": "uint256"
      },
      {
        "name": "lastContributionBlockNumber",
        "type": "uint256"
      },
      {
        "name": "blockContribution",
        "type": "uint256"
      }
    ],
    "payable": false,
    "type": "function"
  },
  {
    "constant": true,
    "inputs": [],
    "name": "owner",
    "outputs": [
      {
        "name": "",
        "type": "address"
      }
    ],
    "payable": false,
    "type": "function"
  },
  {
    "constant": true,
    "inputs": [],
    "name": "symbol",
    "outputs": [
      {
        "name": "",
        "type": "string"
      }
    ],
    "payable": false,
    "type": "function"
  },
  {
    "constant": false,
    "inputs": [],
    "name": "mine",
    "outputs": [],
    "payable": true,
    "type": "function"
  },
  {
    "constant": false,
    "inputs": [
      {
        "name": "_to",
        "type": "address"
      },
      {
        "name": "_value",
        "type": "uint256"
      }
    ],
    "name": "transfer",
    "outputs": [
      {
        "name": "success",
        "type": "bool"
      }
    ],
    "payable": false,
    "type": "function"
  },
  {
    "constant": true,
    "inputs": [],
    "name": "initialReward",
    "outputs": [
      {
        "name": "",
        "type": "uint256"
      }
    ],
    "payable": false,
    "type": "function"
  },
  {
    "constant": true,
    "inputs": [],
    "name": "blockInterval",
    "outputs": [
      {
        "name": "",
        "type": "uint256"
      }
    ],
    "payable": false,
    "type": "function"
  },
  {
    "constant": false,
    "inputs": [
      {
        "name": "_spender",
        "type": "address"
      },
      {
        "name": "_value",
        "type": "uint256"
      },
      {
        "name": "_extraData",
        "type": "bytes"
      }
    ],
    "name": "approveAndCall",
    "outputs": [
      {
        "name": "success",
        "type": "bool"
      }
    ],
    "payable": false,
    "type": "function"
  },
  {
    "constant": true,
    "inputs": [],
    "name": "rewardReductionRate",
    "outputs": [
      {
        "name": "",
        "type": "uint256"
      }
    ],
    "payable": false,
    "type": "function"
  },
  {
    "constant": true,
    "inputs": [],
    "name": "simulatedBlockNumber",
    "outputs": [
      {
        "name": "",
        "type": "uint256"
      }
    ],
    "payable": false,
    "type": "function"
  },
  {
    "constant": true,
    "inputs": [
      {
        "name": "_owner",
        "type": "address"
      },
      {
        "name": "_spender",
        "type": "address"
      }
    ],
    "name": "allowance",
    "outputs": [
      {
        "name": "remaining",
        "type": "uint256"
      }
    ],
    "payable": false,
    "type": "function"
  },
  {
    "constant": true,
    "inputs": [],
    "name": "timeOfLastBlock",
    "outputs": [
      {
        "name": "",
        "type": "uint256"
      }
    ],
    "payable": false,
    "type": "function"
  },
  {
    "constant": false,
    "inputs": [
      {
        "name": "newOwner",
        "type": "address"
      }
    ],
    "name": "transferOwnership",
    "outputs": [],
    "payable": false,
    "type": "function"
  },
  {
    "inputs": [],
    "payable": false,
    "type": "constructor"
  },
  {
    "payable": false,
    "type": "fallback"
  },
  {
    "anonymous": false,
    "inputs": [
      {
        "indexed": true,
        "name": "_from",
        "type": "address"
      },
      {
        "indexed": true,
        "name": "_to",
        "type": "address"
      },
      {
        "indexed": false,
        "name": "_value",
        "type": "uint256"
      }
    ],
    "name": "Transfer",
    "type": "event"
  },
  {
    "anonymous": false,
    "inputs": [
      {
        "indexed": true,
        "name": "_owner",
        "type": "address"
      },
      {
        "indexed": true,
        "name": "_spender",
        "type": "address"
      },
      {
        "indexed": false,
        "name": "_value",
        "type": "uint256"
      }
    ],
    "name": "Approval",
    "type": "event"
  }
]
